MATEMÁTICA 1,MAT 1,1
SOCIOLOGIA,CSOCI,11
FILOSOFIA E SOCIOLOGIA,CFILO&SOCI,13
ESPANHOL,ESP,9
MATEMÁTICA 5,MAT 5,1
MATEMÁTICA 4,MAT 4,1
MATEMÁTICA 2,MAT 2,1
MATEMÁTICA 3,MAT 3,1
ÁLGEBRA,ALG,1
FÍSICA 2,FIS 2,5
MATEMÁTICA FUNDAMENTAL,MAT FUND,1
GEOMETRIA,GEOM,1
TRIGONOMETRIA,TRIG,1
INTERPRETAÇÃO,INT,2
LITERATURA,LIT,2
BIOLOGIA,BIO,3
REDAÇÃO,RED,12
GEOGRAFIA,GEOG,7
HISTÓRIA 4,HIS 4,6
HISTÓRIA 3,HIS 3,6
HISTÓRIA 2,HIS 2,6
HISTÓRIA 1,HIS 1,6
HISTÓRIA,HIS,6
BIOLOGIA 4,BIO 4,3
BIOLOGIA 3,BIO 3,3
BIOLOGIA 1,BIO 1,3
TRABALHO EM EQUIPE,TEE,23
QUÍMICA,QUI,4
QUÍMICA 4,QUI 4,4
QUÍMICA 2,QUI 2,4
QUÍMICA 1,QUI 1,4
FÍSICA,FIS,5
FÍSICA 4,FIS 4,5
GEOGRAFIA 2,GEOG 2,7
INGLÊS,ING,8
LEITURA,LEIT,2
MÚLTIPLAS LINGUAGENS,MLING,2
CIÊNCIAS,CIEN,15
GEOGRAFIA 1,GEOG 1,7
FÍSICA 1,FIS 1,5
MÚLTIPLAS LINGUAGENS E ARTES,MLeAR,2
INTERPRETAÇÃO 2,INT 2,2
INTERPRETAÇÃO 1,INT 1,2
CIÊNCIAS SOCIOLÓGICAS,CSOC,11
REALIZA A ESCRITA DO ALFABETO,RAED,19
CONCEITO DA SONDAGEM ESCRITA,CDSE,19
REALIZA A ESCRITA DAS FAMÍLIAS,RAEDFF,19
CONCEITO DA AVALIAÇÃO GLOBAL,CDAG,19
RELACIONA O NUMERAL A QUANTIDADE,RONA,1
COMPREENDE CONCEITOS MATEMÁTICOS,CCM,1
RECONHECE E DIFERENCIA FORMAS GEOMÉTRICAS,REDF,1
RECONHECE OS NÚMEROS ESTUDADOS,RONE,1
REPRODUZ LEITURA INDIVIDUAL DOS NÚMEROS ESTUDADOS,RLID,1
IDENTIFICA E CITA AS PARTES DO CORPO,IECA,20
RECONHECE SUA IMAGEM NO ESPELHO,RSIN,20
LABORATÓRIO DE REDAÇÃO,LABRED,12
RECONHECE ATITUDES DE PRESERVAÇÃO DO ESPAÇO COLETIVO,RADP,20
TEM NOÇÕES DE HIGIENE,TNDH,20
LABORATÓRIO DE CIÊNCIAS,LAB CIEN,15
LABORATÓRIO DE REDAÇÃO,LAB RED,12
COORDENAÇÃO MOTORA,CM,23
"PSICOMOTRICIDADE (EQUILIBRIO, LATERALIDADE, COORD. ESPACIAL)",PELC,23
FILOSOFIA,CFILO,10
ASSIDUIDADE,A,25
PORTUGUÊS,PORT,2
GRAMÁTICA,GRAM,2
COMPREENSÃO DE TEXTO,CompTex,2
BIOLOGIA 2,BIO 2,3
QUÍMICA 3,QUI 3,4
FÍSICA 3,FIS 3,5
LÍNGUA PORTUGUESA,LPORT,2
FORMAÇÃO HUMANA E ORIENTAÇÃO PROFISSIONAL,FOR HUM,16
CIÊNCIAS FILOSÓFICAS E SOCIOLÓGICAS,CFILO&SOC,13
REALIZA A LEITURA INDIVIDUAL DAS FAMÍLIAS,RALIF,19
REALIZA CONTAGEM ORAL EM SEQUÊNCIA LÓGICA,RCOE,1
RECONHECE AS CORES PRIMÁRIAS,RACP,1
RECONHECE OS MEMBROS DA SUA FAMÍLIA,ROND,20
COMPREENDE OS CONCEITOS APRESENTADOS NAS UNIDADES ESTUDADAS DE NATUREZA E SOCIDADE,COCA,20
INTERAGE COM O GRUPO DURANTE A REALIZAÇÃO DE PROJETOS PEDAGÓGICO,ICOG,20
REPRODUZ MELODIAS SIMPLES E PEQUENAS,RMSE,24
IDENTIFICA/PRODUZ DIFERENTES SONS,IPDS,24
PARTICIPA DE JOGOS E BRINCADEIRAS QUE ENVOLVAM A EXPRESSÃO MUSICAL E DANÇA,PDJE,24
EDUCAÇÃO FÍSICA ,EDU. FÍSICA ,2
PONTUALIDADE,P,25
TEM SENSO DE RESPONSABILIDADE OU CUIDADO COM SEUS MATERIAIS,TSDR,18
UTILIZA LINGUAGEM ADEQUADA PARA A IDADE,ULAP,19
PARTICIPA DA CONVERSA DE GRUPO,PDCD,19
TEM CLAREZA NA ARTICULAÇÃO DAS PALAVRAS,TCNA,19
DEMONSTRA INTERESSE POR OUVIR HISTÓRIAS,DIPO,19
DIZ SEU NOME,DSN,19
LABORATÓRIO DE CIÊNCIAS,LABCIEN,15
RECONHECE AS VOGAIS,RAV,19
REALIZA OPERAÇÕES MATEMÁTICAS SIMPLES,ROMS,1
FORMAÇÃO HUMANA E ORIENTAÇÃO PROFISSIONAL,FOR HUM E ORIENT,16
RESPEITA REGRAS E COMBINADOS,REG,18
RELACIONA-SE DE MANEIRA AMIGÁVEL COM OS COLEGUINHAS,RELACIONAMENTO,18
TEM INICIATIVA DE PEDIR AJUDA QUANDO NECESSÁRIO,AJUDA,18
AVISA QUANDO QUER IR AO BANHEIRO,BANHEIRO,18
PROCURA ALIMENTAR-SE COM AUTONOMIA,AUTONOMIA,18
Bilíngue,BILIN,22
Literatura,LITER,2
EDUCAÇÃO FÍSICA,EDF,2
LABORATÓRIO DE QUÍMICA,LABQUIM,4
OP,OP,17
ADAPTADO (A) À ROTINA ESCOLAR,ADP,18
DEMONSTRA INTERESSE EM PARTICIPAR DAS ATIVIDADES ESCOLARES,IPA,18
COMPARTILHA OBJETOS ESPAÇOS E MOMENTOS DE BRINCADEIRAS,COMPARTILHA,18
COMUNICADO,COMUNICADO,2
MATEMÁTICA,MAT-1,1
INTERPRETAÇÃO TEXTUAL,INT-TEXT,2
EDUCAÇÃO FÍSICA,EDFIS,26
ARTES,ART,21
PRODUÇÃO TEXTUAL,PRODTEXT,2
MATEMÁTICA,MAT,1
GEOGRAFIA 2,GEO 2,7
GEOGRAFIA 1,GEO 1,7
REALIZA A LEITURA INDIVIDUAL DO ALFABETO,RALI,19
INTERPRETAÇÃO TEXTUAL 1,INTTEXT1,2
COMPREENSÃO TEXTUAL,COMTEXTO,2
INTERPRETAÇÃO TEXTUAL 2,INTTEXT2,2
PORTUGUÊS 1,PORT1,2
PORTUGUÊS 2,PORT2,2
GEOGRAFIA 3,GEO3,7
GEOGRAFIA A,GEO A,7
GEOGRAFIA B,GEO B,7
BIOLOGIA A,BIO A,3
BIOLOGIA B,BIO B,3
HISTÓRIA A,HIS A,6
HISTÓRIA B,HIS B,6
FÍSICA A,FIS A,5
FÍSICA B,FIS B,5
QUÍMICA A,QUI A,4
QUÍMICA B,QUI B,4
MATEMÁTICA A,MAT A,1
MATEMÁTICA B,MAT B,1
MATEMÁTICA C,MAT C,1
BIOLOGIA C,BIO C,3
QUÍMICA C,QUI C,4
FÍSICA C,FIS C,5
GEOGRAFIA GERAL,GEOG,7
GEOGRAFIA DO BRASIL,GEOBR,7
HISTÓRIA GERAL,HISG,6
HISTÓRIA DO BRASIL,HISBR,6
